…
# current verison
packageVersion("exiv")
```

    ## [1] '0.1.0'

### Tags, you say?

We got your tags, *right here*:

``` r
exif_tags(filter_type="ascii")
```

    ## # A tibble: 49 x 4
    ##                              key  type
    ##                            <chr> <chr>
    ##  1 Exif.Image.ProcessingSoftware ascii
    ##  2       Exif.Image.DocumentName ascii
    ##  3   Exif.Image.ImageDescription ascii
    ##  4               Exif.Image.Make ascii
    ##  5              Exif.Image.Model ascii
    ##  6           Exif.Image.Software ascii
    ##  7           Exif.Image.DateTime ascii
    ##  8             Exif.Image.Artist ascii
    ##  9       Exif.Image.HostComputer ascii
    ## 10           Exif.Image.InkNames ascii
    ## # ... with 39 more rows, and 2 more variables: description <chr>, rname <chr>
…
